<?xml version="1.0" encoding="UTF-8"?>
<svg width="192px" height="94px" viewBox="0 0 192 94" version="1.1" xmlns="http://www.w3.org/2000/svg" xmlns:xlink="http://www.w3.org/1999/xlink">
    <!-- Generator: Sketch 47.1 (45422) - http://www.bohemiancoding.com/sketch -->
    <title>Page 1</title>
    <desc>Created with Sketch.</desc>
    <defs>
        <polygon id="path-1" points="1.35525272e-20 0.687191535 1.35525272e-20 53.9868449 42.6605765 53.9868449 42.6605765 0.687191535"></polygon>
        <polygon id="path-3" points="0.402 0.361 80.589145 0.361 80.589145 73.8347 0.402 73.8347 0.402 0.361"></polygon>
    </defs>
    <g id="Page-1" stroke="none" stroke-width="1" fill="none" fill-rule="evenodd">
        <g transform="translate(0.000000, -1.000000)">
            <g id="Group-3" transform="translate(0.000000, 40.639200)">
                <mask id="mask-2" fill="white">
                    <use xlink:href="#path-1"></use>
                </mask>
                <g id="Clip-2"></g>
                <path d="M17.2958,31.2094 L17.2958,31.2094 C18.7588,26.1884 20.0478,21.7924 20.0478,21.7924 L23.1178,31.1904 L17.2958,31.2094 Z M42.6448,51.0284 C42.3508,47.5134 40.6358,49.1494 39.6898,45.5474 L25.9958,4.1914 C25.9958,4.1914 24.8528,0.5644 20.7878,0.6904 C17.6138,0.7884 16.4008,4.6334 16.4008,4.6334 L3.2808,46.1354 C3.2808,46.1354 2.6668,47.7444 1.9868,48.2914 C-1.3992,51.1664 0.0968,53.9684 2.3688,53.9794 C4.6598,54.0074 12.4658,53.9474 12.4658,53.9474 C12.4658,53.9474 15.1828,53.9674 15.1758,51.6984 C15.1688,49.4444 13.3658,48.2684 13.3658,48.2684 C13.3658,48.2684 12.4448,47.1744 13.1138,45.2514 C13.3228,44.6824 13.9498,42.5764 14.7618,39.8604 L25.9578,39.8264 L27.9188,45.8024 C27.9188,45.8024 28.5708,47.4824 27.7188,48.3214 C26.8658,49.1464 25.8988,50.5744 26.3148,51.9024 C26.7178,53.2454 27.5278,53.8824 29.4128,53.9224 C31.2908,53.9444 39.8188,53.8904 39.8188,53.8904 C39.8188,53.8904 42.9068,54.0724 42.6448,51.0284 L42.6448,51.0284 Z" id="Fill-1" fill="#FFFFFF" mask="url(#mask-2)"></path>
            </g>
            <path d="M45.9806,88.1367 C46.0296,87.2897 45.9246,70.3437 45.9246,70.3437 C45.9246,70.3437 46.3186,69.2387 44.8396,68.4017 C43.3676,67.5587 42.3556,65.4547 45.7196,63.4807 C49.0816,61.5047 53.7196,60.0687 54.4646,63.0117 C55.2086,65.9407 55.0756,65.8147 55.0756,65.8147 C55.0756,65.8147 59.6806,60.2817 66.7656,61.9527 C73.8656,63.6247 74.5666,69.8307 74.5076,73.6267 C74.4706,77.4077 74.4136,87.3997 74.4136,87.3997 C74.4136,87.3997 74.1986,88.9847 75.2306,89.5897 C76.8226,90.5347 77.6256,94.5007 74.4076,94.5107 C70.5966,94.5227 65.1736,94.5387 64.3676,94.5417 C62.9506,94.5457 61.4096,91.8987 63.5536,89.5827 C64.1296,88.6037 64.1546,88.1817 64.1776,87.3807 L64.1296,71.8517 C64.1296,71.8517 64.1446,67.7767 60.2706,67.7887 C56.4126,67.8007 56.8716,72.9597 56.8716,72.9597 L56.9166,87.4657 C56.9166,87.4657 56.9186,88.7827 57.7086,89.1517 C60.0646,90.2517 60.2476,94.6057 57.2496,94.6047 C54.4706,94.6077 47.2536,94.6357 47.2536,94.6357 C47.2536,94.6357 44.2266,94.8487 43.9306,91.8657 C43.7516,89.7287 45.9096,89.4047 45.9806,88.1367" id="Fill-4" fill="#FFFFFF"></path>
            <path d="M129.2438,87.9765 C129.2978,87.1205 129.1888,70.1765 129.1888,70.1765 C129.1888,70.1765 129.2788,68.9225 128.1038,68.2425 C126.6418,67.3675 125.6188,65.2825 128.9768,63.3145 C132.3348,61.3365 136.9748,59.9005 137.7288,62.8405 C138.4738,65.7795 138.3468,65.6335 138.3468,65.6335 C138.3468,65.6335 142.9378,60.1175 150.0338,61.7785 C157.1228,63.4585 157.8118,69.6695 157.7768,73.4535 C157.7438,77.2335 157.6748,87.2275 157.6748,87.2275 C157.6748,87.2275 157.6188,88.7685 158.4928,89.4235 C159.9778,90.5265 160.9008,94.5155 157.6768,94.5255 C153.9108,94.5475 148.4818,94.5475 147.6408,94.5565 C146.5868,94.6045 144.6628,91.7295 146.8158,89.4105 C147.3888,88.4405 147.4298,88.0075 147.4448,87.2055 L147.3958,71.6825 C147.3958,71.6825 147.3968,67.6155 143.5338,67.6275 C139.6628,67.6395 140.1468,72.7655 140.1468,72.7655 L140.1928,87.3095 C140.1928,87.3095 140.1818,88.6005 140.9808,88.9745 C143.3268,90.0855 143.5118,94.5705 140.5188,94.5795 C137.7458,94.5815 130.5208,94.6105 130.5208,94.6105 C130.5208,94.6105 127.4538,95.0625 127.2028,91.6875 C127.0408,89.5695 129.1668,89.2235 129.2438,87.9765" id="Fill-6" fill="#FFFFFF"></path>
            <path d="M91.4982,88.4462 L91.4982,88.4462 C88.6842,88.4552 86.3822,83.8162 86.3642,78.0852 C86.3462,72.3552 88.6202,67.7012 91.4332,67.6922 C94.2572,67.6832 96.5602,72.3232 96.5782,78.0532 C96.5962,83.7842 94.3222,88.4372 91.4982,88.4462 M107.2892,86.7872 L107.1632,44.3792 C107.1632,44.3792 107.4122,40.5192 102.4092,41.3422 C97.4062,42.1622 90.5512,43.8122 94.3502,47.8322 C95.3582,48.9442 96.6432,49.0152 96.5752,52.3302 C96.5612,53.0512 96.5872,58.3402 96.6002,62.4812 C94.9742,61.8522 93.2482,61.5182 91.4142,61.5232 C82.9592,61.5502 76.1292,68.9752 76.1572,78.1172 C76.1852,87.2632 83.0622,94.6612 91.5182,94.6342 C94.0312,94.6272 96.3832,93.9482 98.4782,92.7792 C98.8602,93.7502 99.6662,94.5682 101.2742,94.6142 L107.4442,94.5942 C107.9262,94.5932 109.3062,93.8692 109.1622,92.0302 C109.0292,90.1772 107.3152,89.3322 107.2892,86.7872" id="Fill-8" fill="#FFFFFF"></path>
            <path d="M123.0705,65.6347 C123.0765,65.5797 123.4725,61.6437 120.7765,61.1387 C117.7785,60.5537 115.4145,61.3227 112.0515,63.3077 C108.6915,65.2987 109.6905,67.4087 111.1745,68.2297 C112.2555,68.8247 112.2535,70.1747 112.2535,70.1747 C112.2535,70.1747 112.3715,87.1217 112.3095,87.9597 C112.2345,89.2377 110.1145,89.5657 110.2835,91.6977 C110.5305,95.0787 113.5875,94.6107 113.5875,94.6107 C113.5875,94.6107 120.8175,94.5717 123.5895,94.5787 C126.5735,94.5877 126.3985,90.0707 124.0465,88.9717 C123.2435,88.6007 123.2565,87.2977 123.2565,87.2977 L123.2105,72.7797 C123.2105,72.7797 123.1345,65.5647 123.0705,65.6347" id="Fill-10" fill="#FFFFFF"></path>
            <path d="M121.3439,54.4999 C121.3439,56.9979 119.3179,59.0229 116.8199,59.0229 C114.3209,59.0229 112.2959,56.9979 112.2959,54.4999 C112.2959,52.0009 114.3209,49.9759 116.8199,49.9759 C119.3179,49.9759 121.3439,52.0009 121.3439,54.4999" id="Fill-12" fill="#FFFFFF"></path>
            <path d="M175.3022,89.1064 L175.3022,89.1064 C172.4942,89.1154 170.2042,84.1334 170.1852,77.9964 C170.1662,71.8584 172.4252,66.8804 175.2322,66.8724 C178.0632,66.8634 180.3702,71.8264 180.3892,77.9644 C180.4082,84.1024 178.1322,89.0974 175.3022,89.1064 M175.2152,61.3324 C166.2422,61.3594 158.9812,68.8384 159.0102,78.0314 C159.0392,87.2244 166.3462,94.6544 175.3192,94.6264 C184.3192,94.5974 191.5782,87.1234 191.5502,77.9294 C191.5212,68.7364 184.2152,61.3034 175.2152,61.3324" id="Fill-14" fill="#FFFFFF"></path>
            <path d="M42.985,43.7275 L42.985,43.7275 C41.512,44.5815 39.72,44.7615 36.994,45.1045 L36.972,37.9915 C36.968,36.6645 38.731,36.2185 40.635,36.2135 C43.407,36.2055 45.195,37.6765 45.203,40.0105 C45.207,41.5525 44.375,42.9515 42.985,43.7275 M40.833,34.4605 L32.695,34.4865 C32.152,34.4875 31.726,34.8435 31.728,35.3385 C31.729,35.6365 31.942,35.9315 32.281,36.0375 L32.606,36.1665 C33.191,36.3845 33.328,36.5965 33.329,37.2515 L33.333,38.3645 L33.37,39.5795 L33.401,49.5115 L33.372,50.6855 L33.375,51.7955 C33.377,52.4945 33.261,52.5805 32.658,52.8775 L32.357,53.0405 C32.022,53.1895 31.837,53.4255 31.838,53.7245 C31.839,54.1955 32.273,54.5695 32.819,54.5675 L35.114,54.5335 L37.795,54.5515 C38.338,54.5505 38.757,54.1735 38.756,53.7455 C38.755,53.4345 38.538,53.1685 38.203,53.0555 L37.697,52.8285 C37.158,52.6245 36.972,52.4225 36.97,51.7515 L36.966,50.6405 L36.932,49.4685 L36.923,46.9485 C39.79,46.8335 40.813,46.6895 42.625,46.1345 C46.183,45.1015 48.473,42.6085 48.464,39.7855 C48.454,36.4495 45.544,34.4465 40.833,34.4605" id="Fill-16" fill="#FFFFFF"></path>
            <path d="M64.7489,54.5361 L62.6039,54.5681 C61.9739,54.5701 61.6199,54.3131 61.6189,53.8251 C61.6179,53.5521 61.7669,53.3371 62.0059,53.2071 L62.3309,53.0281 C62.6969,52.8601 62.8199,52.7441 62.8819,52.4811 C62.9629,52.1391 62.9909,51.9941 62.9869,50.6451 L62.9519,39.4881 C62.9459,37.6121 62.8889,37.2361 62.3399,36.9881 L61.8129,36.7181 C61.5649,36.5721 61.4109,36.4001 61.4109,36.2121 C61.4099,35.9071 61.6189,35.7231 62.1339,35.5691 C62.3099,35.5111 62.7659,35.3271 63.4859,35.0621 C64.5129,34.7191 65.1229,34.5511 65.5109,34.5501 C66.3259,34.5471 66.4729,34.9321 66.4789,37.0611 L66.5209,50.6351 C66.5259,51.9821 66.5259,52.0911 66.6499,52.4701 C66.6969,52.6451 66.7379,52.7591 66.8339,52.8211 C66.8679,52.8481 66.9899,52.8951 67.1939,53.0141 L67.4699,53.1901 C67.7429,53.3651 67.8839,53.5321 67.8849,53.8271 C67.8869,54.2931 67.5289,54.5531 66.8959,54.5551 L64.7489,54.5361 Z" id="Fill-18" fill="#FFFFFF"></path>
            <path d="M71.6159,54.5351 L69.4649,54.5671 C68.8399,54.5691 68.4689,54.3121 68.4679,53.8251 C68.4669,53.5511 68.6149,53.3361 68.8669,53.2061 L69.1949,53.0281 C69.5549,52.8591 69.6829,52.7431 69.7319,52.4801 C69.8239,52.1381 69.8599,51.9931 69.8559,50.6441 L69.8209,39.4871 C69.8149,37.6111 69.7449,37.2351 69.2049,36.9871 L68.6709,36.7171 C68.4139,36.5721 68.2709,36.3991 68.2699,36.2111 C68.2689,35.9071 68.4769,35.7231 68.9969,35.5681 C69.1639,35.5111 69.6279,35.3261 70.3439,35.0621 C71.3719,34.7181 71.9769,34.5501 72.3759,34.5491 C73.1719,34.5461 73.3289,34.9311 73.3359,37.0601 L73.3779,50.6341 C73.3829,51.9821 73.3829,52.0901 73.5089,52.4691 C73.5369,52.6441 73.5979,52.7581 73.6879,52.8201 C73.7209,52.8471 73.8339,52.8941 74.0579,53.0131 L74.3229,53.1891 C74.6049,53.3641 74.7489,53.5311 74.7499,53.8261 C74.7509,54.2931 74.3969,54.5521 73.7499,54.5551 L71.6159,54.5351 Z" id="Fill-20" fill="#FFFFFF"></path>
            <path d="M82.1738,52.9257 L82.1738,52.9257 C79.9368,52.9327 78.5528,51.0227 78.5428,47.8807 C78.5338,44.8577 79.9688,42.9217 82.2088,42.9147 C84.4588,42.9067 85.8908,44.7827 85.8998,47.7387 C85.9098,50.9987 84.5408,52.9187 82.1738,52.9257 M82.6408,41.2207 C78.3958,41.2347 75.0818,44.2307 75.0928,48.0207 C75.1048,51.7397 78.3108,54.5807 82.4728,54.5677 C86.7358,54.5547 90.0118,51.6057 89.9998,47.7927 C89.9878,44.1087 86.7168,41.2077 82.6408,41.2207" id="Fill-22" fill="#FFFFFF"></path>
            <path d="M57.5322,47.7275 L57.5322,47.7275 C57.5232,44.7495 56.0932,42.8895 53.8342,42.8965 C51.6072,42.9035 50.1622,44.8415 50.1712,47.8705 C50.1812,51.0155 51.5782,52.9175 53.7952,52.9115 C56.1572,52.9045 57.5422,50.9935 57.5322,47.7275 M61.2992,47.7825 C61.3112,51.6015 58.0322,54.5545 53.7912,54.5675 C49.6182,54.5815 46.4102,51.7365 46.3992,48.0105 C46.3872,44.2145 49.6882,41.2135 53.9502,41.2005 C58.0252,41.1885 61.2872,44.0925 61.2992,47.7825" id="Fill-24" fill="#FFFFFF"></path>
            <path d="M120.4887,64.4912 C120.4457,64.1322 120.3667,63.8112 120.2687,63.6612 C118.1117,63.2512 116.4307,63.7102 113.3597,65.5222 C112.9847,65.7452 112.7417,65.9332 112.5877,66.0762 C112.6177,66.0952 112.6457,66.1152 112.6757,66.1352 L118.1867,66.1352 C118.9627,65.6152 119.7297,65.0642 120.4887,64.4912" id="Fill-26" fill="#FFFFFF"></path>
            <g id="Group-30" transform="translate(111.000000, 0.639200)">
                <mask id="mask-4" fill="white">
                    <use xlink:href="#path-3"></use>
                </mask>
                <g id="Clip-29"></g>
                <path d="M40.307,0.3607 C20.19,0.3787 3.508,21.5497 0.402,49.2857 C1.705,47.7457 3.649,46.7627 5.82,46.7627 C9.733,46.7627 12.916,49.9467 12.916,53.8607 C12.916,55.5417 12.326,57.0857 11.345,58.3017 C12.358,58.7347 13.116,59.4667 13.654,60.3557 C21.4,53.1607 27.188,43.6137 26.817,35.5677 C26.724,33.5517 27.595,30.8777 28.657,29.3827 C23.76,33.4537 17.391,29.9877 17.584,26.4497 C17.727,23.8277 20.496,21.5817 23.929,21.7067 C21.619,21.1897 19.886,19.7157 19.994,18.4487 C20.31,14.7307 27.578,14.2337 30.328,15.7687 C28.685,14.2657 28.236,12.2767 28.804,11.4877 C31.233,8.1117 37.781,11.7787 38.922,12.9967 C38.353,11.9957 38.152,11.0497 38.638,10.6017 C40.461,8.9197 45.334,13.1317 45.969,15.2367 C47.307,12.9987 49.134,16.1307 49.665,18.6567 C49.965,20.0957 49.95,21.4437 49.68,22.3767 C52.108,19.1427 57.226,15.5657 60.415,14.8907 L55.479,27.4047 L64.004,25.9417 C63.418,27.1967 61.662,30.8547 56.495,33.5187 C59.424,35.4147 60.983,35.3777 63.066,35.9717 C66.715,37.0147 69.355,40.8547 68.732,43.7917 C68.264,45.9997 66.33,47.9647 63.68,47.4577 C67.21,50.9777 72.133,59.3787 73.169,65.4957 L73.562,65.4957 L79.097,73.8347 C79.097,73.8347 80.637,66.1087 80.588,58.6257 C80.387,27.2927 63.214,0.3397 40.307,0.3607" id="Fill-28" fill="#FFFFFF" mask="url(#mask-4)"></path>
            </g>
        </g>
    </g>
</svg>